…
xfun::cache_rds(diabetes, file = "new_cached_data.rds")
```

    ## # A tibble: 253,680 × 22
    ##    Diabetes_binary HighBP HighChol
    ##              <dbl>  <dbl>    <dbl>
    ##  1               0      1        1
    ##  2               0      0        0
    ##  3               0      1        1
    ##  4               0      1        0
    ##  5               0      1        1
    ##  6               0      1        1
    ##  7               0      1        0
    ##  8               0      1        1
    ##  9               1      1        1
    ## 10               0      0        0
    ## # ℹ 253,670 more rows
    ## # ℹ 19 more variables: CholCheck <dbl>,
    ## #   BMI <dbl>, Smoker <dbl>,
    ## #   Stroke <dbl>,
    ## #   HeartDiseaseorAttack <dbl>,
    ## #   PhysActivity <dbl>, Fruits <dbl>,
    ## #   Veggies <dbl>, …
…
